…
How about the other
    order?

``` r
left_join(gapminder, gp_comp, by = "country")
```

    ## Warning: Column `country` joining factors with different levels, coercing
    ## to character vector

    ## # A tibble: 1,704 x 8
    ##    country     continent  year lifeExp      pop gdpPercap spoken_la… NATO 
    ##    <chr>       <fctr>    <int>   <dbl>    <int>     <dbl> <fctr>     <fct>
    ##  1 Afghanistan Asia       1952    28.8  8425333       779 <NA>       <NA> 
    ##  2 Afghanistan Asia       1957    30.3  9240934       821 <NA>       <NA> 
    ##  3 Afghanistan Asia       1962    32.0 10267083       853 <NA>       <NA> 
    ##  4 Afghanistan Asia       1967    34.0 11537966       836 <NA>       <NA> 
    ##  5 Afghanistan Asia       1972    36.1 13079460       740 <NA>       <NA> 
    ##  6 Afghanistan Asia       1977    38.4 14880372       786 <NA>       <NA> 
    ##  7 Afghanistan Asia       1982    39.9 12881816       978 <NA>       <NA> 
    ##  8 Afghanistan Asia       1987    40.8 13867957       852 <NA>       <NA> 
    ##  9 Afghanistan Asia       1992    41.7 16317921       649 <NA>       <NA> 
    ## 10 Afghanistan Asia       1997    41.8 22227415       635 <NA>       <NA> 
    ## # ... with 1,694 more rows
…
Let’s try
    *right\_join*.

``` r
right_join(gapminder, gp_comp, by = "country")
```

    ## Warning: Column `country` joining factors with different levels, coercing
    ## to character vector

    ## # A tibble: 72 x 8
    ##    country continent  year lifeExp        pop gdpPercap spoken_lang NATO  
    ##    <chr>   <fctr>    <int>   <dbl>      <int>     <dbl> <fctr>      <fctr>
    ##  1 China   Asia       1952    44.0  556263527       400 Mandarin    No    
    ##  2 China   Asia       1957    50.5  637408000       576 Mandarin    No    
    ##  3 China   Asia       1962    44.5  665770000       488 Mandarin    No    
    ##  4 China   Asia       1967    58.4  754550000       613 Mandarin    No    
    ##  5 China   Asia       1972    63.1  862030000       677 Mandarin    No    
    ##  6 China   Asia       1977    64.0  943455000       741 Mandarin    No    
    ##  7 China   Asia       1982    65.5 1000281000       962 Mandarin    No    
    ##  8 China   Asia       1987    67.3 1084035000      1379 Mandarin    No    
    ##  9 China   Asia       1992    68.7 1164970000      1656 Mandarin    No    
    ## 10 China   Asia       1997    70.4 1230075000      2289 Mandarin    No    
    ## # ... with 62 more rows
…
Let’s try
    inner\_join.

``` r
inner_join(gapminder, gp_comp, by ="country")
```

    ## Warning: Column `country` joining factors with different levels, coercing
    ## to character vector

    ## # A tibble: 72 x 8
    ##    country continent  year lifeExp        pop gdpPercap spoken_lang NATO  
    ##    <chr>   <fctr>    <int>   <dbl>      <int>     <dbl> <fctr>      <fctr>
    ##  1 China   Asia       1952    44.0  556263527       400 Mandarin    No    
    ##  2 China   Asia       1957    50.5  637408000       576 Mandarin    No    
    ##  3 China   Asia       1962    44.5  665770000       488 Mandarin    No    
    ##  4 China   Asia       1967    58.4  754550000       613 Mandarin    No    
    ##  5 China   Asia       1972    63.1  862030000       677 Mandarin    No    
    ##  6 China   Asia       1977    64.0  943455000       741 Mandarin    No    
    ##  7 China   Asia       1982    65.5 1000281000       962 Mandarin    No    
    ##  8 China   Asia       1987    67.3 1084035000      1379 Mandarin    No    
    ##  9 China   Asia       1992    68.7 1164970000      1656 Mandarin    No    
    ## 10 China   Asia       1997    70.4 1230075000      2289 Mandarin    No    
    ## # ... with 62 more rows
…
And
    full\_join.

``` r
full_join(gapminder, gp_comp, by ="country")
```

    ## Warning: Column `country` joining factors with different levels, coercing
    ## to character vector

    ## # A tibble: 1,704 x 8
    ##    country     continent  year lifeExp      pop gdpPercap spoken_la… NATO 
    ##    <chr>       <fctr>    <int>   <dbl>    <int>     <dbl> <fctr>     <fct>
    ##  1 Afghanistan Asia       1952    28.8  8425333       779 <NA>       <NA> 
    ##  2 Afghanistan Asia       1957    30.3  9240934       821 <NA>       <NA> 
    ##  3 Afghanistan Asia       1962    32.0 10267083       853 <NA>       <NA> 
    ##  4 Afghanistan Asia       1967    34.0 11537966       836 <NA>       <NA> 
    ##  5 Afghanistan Asia       1972    36.1 13079460       740 <NA>       <NA> 
    ##  6 Afghanistan Asia       1977    38.4 14880372       786 <NA>       <NA> 
    ##  7 Afghanistan Asia       1982    39.9 12881816       978 <NA>       <NA> 
    ##  8 Afghanistan Asia       1987    40.8 13867957       852 <NA>       <NA> 
    ##  9 Afghanistan Asia       1992    41.7 16317921       649 <NA>       <NA> 
    ## 10 Afghanistan Asia       1997    41.8 22227415       635 <NA>       <NA> 
    ## # ... with 1,694 more rows
…
And some filtering joins.

Let’s first look at
    semi\_join.

``` r
semi_join(gapminder, gp_comp, by ="country")
```

    ## Warning: Column `country` joining factors with different levels, coercing
    ## to character vector

    ## # A tibble: 72 x 6
    ##    country continent  year lifeExp        pop gdpPercap
    ##    <fctr>  <fctr>    <int>   <dbl>      <int>     <dbl>
    ##  1 China   Asia       1952    44.0  556263527       400
    ##  2 China   Asia       1957    50.5  637408000       576
    ##  3 China   Asia       1962    44.5  665770000       488
    ##  4 China   Asia       1967    58.4  754550000       613
    ##  5 China   Asia       1972    63.1  862030000       677
    ##  6 China   Asia       1977    64.0  943455000       741
    ##  7 China   Asia       1982    65.5 1000281000       962
    ##  8 China   Asia       1987    67.3 1084035000      1379
    ##  9 China   Asia       1992    68.7 1164970000      1656
    ## 10 China   Asia       1997    70.4 1230075000      2289
    ## # ... with 62 more rows
…
The joined data frame has nothing because all items under “country”
column in gp\_comp has a match in Gapminder.  
What if the order of the arguements were
    swapped?

``` r
anti_join(gapminder, gp_comp, by ="country")
```

    ## Warning: Column `country` joining factors with different levels, coercing
    ## to character vector

    ## # A tibble: 1,632 x 6
    ##    country     continent  year lifeExp      pop gdpPercap
    ##    <fctr>      <fctr>    <int>   <dbl>    <int>     <dbl>
    ##  1 Afghanistan Asia       1952    28.8  8425333       779
    ##  2 Afghanistan Asia       1957    30.3  9240934       821
    ##  3 Afghanistan Asia       1962    32.0 10267083       853
    ##  4 Afghanistan Asia       1967    34.0 11537966       836
    ##  5 Afghanistan Asia       1972    36.1 13079460       740
    ##  6 Afghanistan Asia       1977    38.4 14880372       786
    ##  7 Afghanistan Asia       1982    39.9 12881816       978
    ##  8 Afghanistan Asia       1987    40.8 13867957       852
    ##  9 Afghanistan Asia       1992    41.7 16317921       649
    ## 10 Afghanistan Asia       1997    41.8 22227415       635
    ## # ... with 1,622 more rows
…
